<svg width="26" height="22" viewBox="0 0 26 22" fill="none" xmlns="http://www.w3.org/2000/svg">
<path d="M6.22038 21.8104H19.3243C20.9502 21.8104 21.9083 20.8523 21.9083 19.3039V10.6324L22.8083 11.3776C23.0987 11.6293 23.4471 11.8035 23.7955 11.8035C24.5407 11.8035 25.0633 11.3389 25.0633 10.6228C25.0633 10.2357 24.8891 9.86789 24.56 9.59691L21.9083 7.37099V3.06432C21.9083 2.60945 21.6179 2.31912 21.1728 2.31912H19.392C18.9372 2.31912 18.6371 2.60945 18.6371 3.06432V4.61278L14.495 1.13841C13.4691 0.277076 12.1336 0.277076 11.1077 1.13841L1.02334 9.60659C0.694289 9.87757 0.520087 10.255 0.520087 10.6131C0.520087 11.2905 1.01366 11.8035 1.78789 11.8035C2.14598 11.8035 2.49438 11.6293 2.78472 11.3776L3.63638 10.6712V19.3039C3.63638 20.8523 4.59449 21.8104 6.22038 21.8104ZM15.5596 13.1971C15.5596 12.7326 15.2596 12.4325 14.795 12.4325H10.7884C10.3238 12.4325 10.0141 12.7326 10.0141 13.1971V19.3135H7.03332C6.45265 19.3135 6.13328 18.9845 6.13328 18.4038V8.57105L12.2691 3.43208C12.6078 3.13206 12.9852 3.13206 13.3433 3.43208L19.4114 8.53234V18.4038C19.4114 18.9845 19.092 19.3135 18.521 19.3135H15.5596V13.1971Z" fill="white"/>
</svg>
