<svg width="19" height="20" viewBox="0 0 19 20" fill="none" xmlns="http://www.w3.org/2000/svg">
<path d="M9.49975 10.2196C11.8999 10.2196 13.8355 8.12919 13.8355 5.53551C13.8355 2.9999 11.8902 0.948181 9.49975 0.948181C7.11898 0.948181 5.16404 3.00958 5.17372 5.54519C5.1834 8.12919 7.09962 10.2196 9.49975 10.2196ZM9.49975 8.16791C8.29001 8.16791 7.2835 7.0743 7.27383 5.53551C7.26415 4.06447 8.29968 2.99022 9.49975 2.99022C10.7192 2.99022 11.7257 4.05479 11.7257 5.53551C11.7257 7.06462 10.7192 8.16791 9.49975 8.16791ZM3.54783 19.2878H15.4517C17.2227 19.2878 18.1034 18.6878 18.1034 17.4297C18.1034 14.5844 14.5903 11.2261 9.49975 11.2261C4.39948 11.2261 0.89608 14.5844 0.89608 17.4297C0.89608 18.6878 1.77677 19.2878 3.54783 19.2878ZM3.4704 17.2458C3.28652 17.2458 3.22846 17.1684 3.22846 17.0232C3.22846 15.7264 5.51244 13.2682 9.49975 13.2682C13.487 13.2682 15.771 15.7264 15.771 17.0232C15.771 17.1684 15.713 17.2458 15.5194 17.2458H3.4704Z" fill="white"/>
</svg>
